{
  "configVersion": 1,
  "index": "/index.html",
  "assetGroups": [
    {
      "name": "app",
      "installMode": "prefetch",
      "updateMode": "prefetch",
      "urls": [
        "/favicon.ico",
        "/index.html",
        "/main.322cb8ab132f1100a469.js",
        "/polyfills.ef14da8bb3dfb716c524.js",
        "/runtime.a5dd35324ddfd942bef1.js",
        "/styles.5a2fb217f4c783263eca.css"
      ],
      "patterns": []
    },
    {
      "name": "assets",
      "installMode": "lazy",
      "updateMode": "prefetch",
      "urls": [
        "/assets/icons/icon-128x128.png",
        "/assets/icons/icon-144x144.png",
        "/assets/icons/icon-152x152.png",
        "/assets/icons/icon-192x192.png",
        "/assets/icons/icon-384x384.png",
        "/assets/icons/icon-512x512.png",
        "/assets/icons/icon-72x72.png",
        "/assets/icons/icon-96x96.png",
        "/assets/tg128.png",
        "/assets/tg144.png",
        "/assets/tg152.png",
        "/assets/tg192.png",
        "/assets/tg256.png",
        "/assets/tg384.png",
        "/assets/tg48.png",
        "/assets/tg512.png",
        "/assets/tg72.png",
        "/assets/tg96.png",
        "/color.c7a33805ffda0d32bd2a.png",
        "/glyphicons-halflings-regular.448c34a56d699c29117a.woff2",
        "/glyphicons-halflings-regular.89889688147bd7575d63.svg",
        "/glyphicons-halflings-regular.e18bbf611f2a2e43afc0.ttf",
        "/glyphicons-halflings-regular.f4769f9bdb7466be6508.eot",
        "/glyphicons-halflings-regular.fa2772327f55d8198301.woff",
        "/hue.0614c27197fc3ce572e1.png",
        "/line.567f57385ea3dde2c9ae.gif",
        "/loading.8732a6660b528fadfaeb.gif",
        "/password-meter.d59e6dc2616c53ce8e77.png",
        "/primeicons.38d77552b0353684a208.svg",
        "/primeicons.473e2a746d3c151d7dca.ttf",
        "/primeicons.71bb3d79dcf18b45ae84.woff",
        "/primeicons.b8eccb1059ea5faaf6d8.eot",
        "/roboto-v15-latin-regular.16e1d930cf13fb7a9563.woff",
        "/roboto-v15-latin-regular.38861cba61c66739c145.ttf",
        "/roboto-v15-latin-regular.3d3a53586bd78d1069ae.svg",
        "/roboto-v15-latin-regular.7e367be02cd17a96d513.woff2",
        "/roboto-v15-latin-regular.9f916e330c478bbfa2a0.eot",
        "/slider_handles.1868e2550c9853a938a6.png"
      ],
      "patterns": []
    }
  ],
  "dataGroups": [],
  "hashTable": {
    "/assets/icons/icon-128x128.png": "dae3b6ed49bdaf4327b92531d4b5b4a5d30c7532",
    "/assets/icons/icon-144x144.png": "b0bd89982e08f9bd2b642928f5391915b74799a7",
    "/assets/icons/icon-152x152.png": "7479a9477815dfd9668d60f8b3b2fba709b91310",
    "/assets/icons/icon-192x192.png": "1abd80d431a237a853ce38147d8c63752f10933b",
    "/assets/icons/icon-384x384.png": "329749cd6393768d3131ed6304c136b1ca05f2fd",
    "/assets/icons/icon-512x512.png": "559d9c4318b45a1f2b10596bbb4c960fe521dbcc",
    "/assets/icons/icon-72x72.png": "c457e56089a36952cd67156f9996bc4ce54a5ed9",
    "/assets/icons/icon-96x96.png": "3914125a4b445bf111c5627875fc190f560daa41",
    "/assets/tg128.png": "91c71cfdd74c85b7caf5a0c4a5a223a8638a5c05",
    "/assets/tg144.png": "0608386e15e0c9bfb76f27ffa0b2da8e2de7f225",
    "/assets/tg152.png": "f0653e6de55eaddebf04172b79be6b0c2ea47c3f",
    "/assets/tg192.png": "6bdfa449f572668f92bf7fe10491403ce0784254",
    "/assets/tg256.png": "325364a86376f7f39adbdc1bf3b3eed44ec26d99",
    "/assets/tg384.png": "c9a195f8d7e12415ef152e21c807761fb675aa92",
    "/assets/tg48.png": "27778c056ba58a903007fc5514ab38ba41dd3399",
    "/assets/tg512.png": "7730ff3f2fd22babd54872346d8e81084ccc19e4",
    "/assets/tg72.png": "e71e0b44740b2d216d7f0f9803eb73c301e74b54",
    "/assets/tg96.png": "85fd378366d9d24a57d54575ba7756f677f20db5",
    "/color.c7a33805ffda0d32bd2a.png": "ff4c4bcb2207891b292f544edb4da9d2df5d45cf",
    "/favicon.ico": "c37d5269db894460f2a5be6f7cda63079c2ff71b",
    "/glyphicons-halflings-regular.448c34a56d699c29117a.woff2": "ca35b697d99cae4d1b60f2d60fcd37771987eb07",
    "/glyphicons-halflings-regular.89889688147bd7575d63.svg": "de51a8494180a6db074af2dee2383f0a363c5b08",
    "/glyphicons-halflings-regular.e18bbf611f2a2e43afc0.ttf": "44bc1850f570972267b169ae18f1cb06b611ffa2",
    "/glyphicons-halflings-regular.f4769f9bdb7466be6508.eot": "86b6f62b7853e67d3e635f6512a5a5efc58ea3c3",
    "/glyphicons-halflings-regular.fa2772327f55d8198301.woff": "278e49a86e634da6f2a02f3b47dd9d2a8f26210f",
    "/hue.0614c27197fc3ce572e1.png": "f81ae627637a684614aa726e206c73ce099a01fd",
    "/index.html": "82d77aa42daffd5484f9467c18c4bb2e870ea37c",
    "/line.567f57385ea3dde2c9ae.gif": "a2af20bd160ca9cfc2c85527663ff7429267519a",
    "/loading.8732a6660b528fadfaeb.gif": "72998a116936156dc7cace0606dab499fe4f3ce8",
    "/main.322cb8ab132f1100a469.js": "9f540c5391416a304ba57c7a59eabccf00308964",
    "/password-meter.d59e6dc2616c53ce8e77.png": "e0e101bd2a1cbda41398b48a4ab1792d89cb7334",
    "/polyfills.ef14da8bb3dfb716c524.js": "355717d8468c0c8ed876bca5f71802d27bbe86c2",
    "/primeicons.38d77552b0353684a208.svg": "2aece4fe55063538513d20439d0e42489e76e973",
    "/primeicons.473e2a746d3c151d7dca.ttf": "3a719e99f37c3095cfadd5fbc2d40249baa09a65",
    "/primeicons.71bb3d79dcf18b45ae84.woff": "ef12c6871ed160bc4ef113400acf51ff6512d1d1",
    "/primeicons.b8eccb1059ea5faaf6d8.eot": "e74d8d740c6e7f4f6160c87f7a239cb3508269ae",
    "/roboto-v15-latin-regular.16e1d930cf13fb7a9563.woff": "940b859e4f02bd3e7cf7b6ce245c197b5470302a",
    "/roboto-v15-latin-regular.38861cba61c66739c145.ttf": "4b1ef58e476b789c97521834abdf7a2fd66d6caf",
    "/roboto-v15-latin-regular.3d3a53586bd78d1069ae.svg": "148fe3b2ffcb825efff40a8378f22125ccf88cb0",
    "/roboto-v15-latin-regular.7e367be02cd17a96d513.woff2": "1eb572d023f15389ce0aa4bc54fdd28c9f717223",
    "/roboto-v15-latin-regular.9f916e330c478bbfa2a0.eot": "bcd5990bb2551892cddff247dff2db1f2fc66ce6",
    "/runtime.a5dd35324ddfd942bef1.js": "b62956c2192bfe5516d6374e753773901ed50ec5",
    "/slider_handles.1868e2550c9853a938a6.png": "05f3cdf0adf87dd1e57a667b27bf26e9c8415353",
    "/styles.5a2fb217f4c783263eca.css": "a471c00076ac25bf68a0c78907e68ffa5be7b0e4"
  },
  "navigationUrls": [
    {
      "positive": true,
      "regex": "^\\/.*$"
    },
    {
      "positive": false,
      "regex": "^\\/(?:.+\\/)?[^/]*\\.[^/]*$"
    },
    {
      "positive": false,
      "regex": "^\\/(?:.+\\/)?[^/]*__[^/]*$"
    },
    {
      "positive": false,
      "regex": "^\\/(?:.+\\/)?[^/]*__[^/]*\\/.*$"
    }
  ]
}